{
    "total": 1280,
    "page": 1,
    "per_page": 10,
    "paging": {
        "next": "/users/5129703/videos?page=2&per_page=10&fields=uri%2Cname%2Cdescription%2Cduration%2Ccreated_time%2Cmodified_time",
        "previous": null,
        "first": "/users/5129703/videos?page=1&per_page=10&fields=uri%2Cname%2Cdescription%2Cduration%2Ccreated_time%2Cmodified_time",
        "last": "/users/5129703/videos?page=128&per_page=10&fields=uri%2Cname%2Cdescription%2Cduration%2Ccreated_time%2Cmodified_time"
    },
    "data": [
        {
            "uri": "/videos/506307995",
            "name": "Science Communication montage -- May, 2017",
            "description": null,
            "duration": 239,
            "created_time": "2021-01-29T22:30:38+00:00",
            "modified_time": "2021-01-29T22:32:47+00:00"
        },
        {
            "uri": "/videos/506307372",
            "name": "LL_Fish montage -- May, 2017",
            "description": null,
            "duration": 30,
            "created_time": "2021-01-29T22:28:28+00:00",
            "modified_time": "2021-01-29T22:30:09+00:00"
        },
        {
            "uri": "/videos/506303990",
            "name": "Gen Ed 1014 -- Ancestry -- Family tree activity montage",
            "description": "Family_Tree_Montage_EC.m4v",
            "duration": 42,
            "created_time": "2021-01-29T22:16:41+00:00",
            "modified_time": "2021-01-29T22:22:39+00:00"
        },
        {
            "uri": "/videos/506302009",
            "name": "MCB81 student final project -- Bilingualism",
            "description": "Bilingualism.m4v",
            "duration": 1050,
            "created_time": "2021-01-29T22:13:56+00:00",
            "modified_time": "2021-01-29T22:19:34+00:00"
        },
        {
            "uri": "/videos/506301100",
            "name": "MCB81 student final project -- Bilingualism",
            "description": "Bilingualism.m4v\nDecember, 2017",
            "duration": 1050,
            "created_time": "2021-01-29T22:10:42+00:00",
            "modified_time": "2021-01-29T22:15:35+00:00"
        },
        {
            "uri": "/videos/506295430",
            "name": "HEB1200 -- student final project -- Neanderthal DNA",
            "description": "Neanderthal DNA.m4v",
            "duration": 320,
            "created_time": "2021-01-29T21:51:45+00:00",
            "modified_time": "2021-01-29T21:57:23+00:00"
        },
        {
            "uri": "/videos/506294654",
            "name": "SCRB78 -- student mid-term presentation",
            "description": null,
            "duration": 457,
            "created_time": "2021-01-29T21:49:06+00:00",
            "modified_time": "2021-01-29T21:56:31+00:00"
        },
        {
            "uri": "/videos/505828322",
            "name": "ASL Event video - Why I Sign",
            "description": "December, 2018\n\"ASL 3 Event.m4v\"",
            "duration": 430,
            "created_time": "2021-01-28T20:07:58+00:00",
            "modified_time": "2021-01-30T04:47:50+00:00"
        },
        {
            "uri": "/videos/505822694",
            "name": "Berryman Trailer -- Dream Song 29 -- John Berryman",
            "description": "\"BerrymanTrailer\"",
            "duration": 123,
            "created_time": "2021-01-28T19:53:52+00:00",
            "modified_time": "2021-01-31T01:47:36+00:00"
        },
        {
            "uri": "/videos/505795229",
            "name": "Womens Center - Gender 101",
            "description": "\"WomensCenter_video_Snow_Edit_0514\"",
            "duration": 372,
            "created_time": "2021-01-28T18:49:27+00:00",
            "modified_time": "2021-01-29T04:22:12+00:00"
        }
    ]
}